Division,WeightClassKg,Place,Name,Team,BodyweightKg,Best3SquatKg,Best3BenchKg,Best3DeadliftKg,TotalKg,Equipment,Event,Sex,BirthDate
Boys,51.71,1,Korbin Pantoja,Azle,50.89,113.4,56.7,122.47,292.57,Unlimited,SBD,M,
Boys,51.71,2,Kevin Corte,Glen Rose,51.35,92.99,63.5,122.47,278.96,Unlimited,SBD,M,
Boys,51.71,3,Kason Wuemling,Glen Rose,47.94,86.18,49.9,102.06,238.14,Unlimited,SBD,M,
Boys,51.71,4,Ben Pardo,Fort Worth Boswell,50.39,86.18,54.43,95.25,235.87,Unlimited,SBD,M,
Boys,51.71,5,Gary Osko,Granbury,46.63,74.84,45.36,92.99,213.19,Unlimited,SBD,M,
Boys,51.71,DQ,Jemison Marquis,Saginaw,51.48,124.74,,,,Unlimited,SBD,M,
Boys,51.71,DQ,Jacob Remo,Saginaw,37.42,,,,,Unlimited,SBD,M,
Boys,55.79,1,Joe Builtron,Fort Worth Boswell,55.57,176.9,97.52,172.37,446.79,Unlimited,SBD,M,
Boys,55.79,2,Gavin Osko,Granbury,55.25,154.22,77.11,151.95,383.29,Unlimited,SBD,M,
Boys,55.79,3,Braeden DeHoyos,Fort Worth Boswell,55.43,142.88,102.06,136.08,381.02,Unlimited,SBD,M,
Boys,55.79,4,Anthony York,Azle,55.79,124.74,83.91,147.42,356.07,Unlimited,SBD,M,
Boys,55.79,5,Keaton Anding,Brock,54.11,122.47,77.11,140.61,340.19,Unlimited,SBD,M,
Boys,55.79,DQ,Jonathan Barajas,Saginaw,55.61,122.47,,,,Unlimited,SBD,M,
Boys,55.79,DQ,Hugo Martinez,Springtown,54.84,142.88,,,,Unlimited,SBD,M,
Boys,59.87,1,Alan Hard,Azle,59.83,195.04,122.47,195.04,512.56,Unlimited,SBD,M,
Boys,59.87,2,Jack Garcia,Fort Worth Boswell,58.24,163.29,104.33,181.44,449.06,Unlimited,SBD,M,
Boys,59.87,3,Parker Bening,Springtown,58.97,163.29,113.4,170.1,446.79,Unlimited,SBD,M,
Boys,59.87,4,Tristyn Keaton,Azle,59.06,172.37,102.06,158.76,433.18,Unlimited,SBD,M,
Boys,59.87,5,Nhat Hoang,Granbury,59.65,172.37,79.38,181.44,433.18,Unlimited,SBD,M,
Boys,59.87,6,Elias Anderson,Glen Rose,58.11,122.47,92.99,165.56,381.02,Unlimited,SBD,M,
Boys,59.87,7,Mason Barr,White Settlement Brewer,59.74,138.35,83.91,158.76,381.02,Unlimited,SBD,M,
Boys,67.13,1,Cayden Lawson,Azle,65.95,192.78,108.86,226.8,528.44,Unlimited,SBD,M,
Boys,67.13,2,Saul Reyna,Glen Rose,67.13,176.9,120.2,201.85,498.95,Unlimited,SBD,M,
Boys,67.13,3,Edgar Valles,Azle,66.81,181.44,124.74,188.24,494.42,Unlimited,SBD,M,
Boys,67.13,4,Matt Long,Aledo,65.68,181.44,113.4,183.7,478.54,Unlimited,SBD,M,
Boys,67.13,5,Lucas Dimas,Granbury,66.22,192.78,102.06,179.17,474,Unlimited,SBD,M,
Boys,67.13,6,Luis Lazcano,Springtown,65.36,179.17,97.52,181.44,458.13,Unlimited,SBD,M,
Boys,67.13,7,Wilson Sehnem,Aledo,65.77,170.1,97.52,183.7,451.32,Unlimited,SBD,M,
Boys,67.13,8,Levi Parenteau,Brock,66.09,165.56,90.72,151.95,408.23,Unlimited,SBD,M,
Boys,67.13,9,Ethan Westover,Fort Worth Chisholm Trail,67.13,165.56,97.52,145.15,408.23,Unlimited,SBD,M,
Boys,67.13,10,Manny Flores,Glen Rose,61.87,138.35,74.84,149.69,362.87,Unlimited,SBD,M,
Boys,67.13,11,Felix Flores,White Settlement Brewer,67.13,129.27,74.84,145.15,349.27,Unlimited,SBD,M,
Boys,67.13,DQ,Mason Bear,White Settlement Brewer,63.55,136.08,,,,Unlimited,SBD,M,
Boys,74.84,1,Meritt Brewer,Glen Rose,74.39,208.65,127.01,213.19,548.85,Unlimited,SBD,M,
Boys,74.84,2,Xander Thacker,Fort Worth Boswell,73.94,213.19,115.67,183.7,512.56,Unlimited,SBD,M,
Boys,74.84,3,Joshua Guzman,Azle,71.62,210.92,124.74,174.63,510.29,Unlimited,SBD,M,
Boys,74.84,4,Korbyn Barton,Fort Worth Boswell,74.66,188.24,124.74,192.78,505.76,Unlimited,SBD,M,
Boys,74.84,5,Logan Stewart,Aledo,74.3,174.63,127.01,188.24,489.88,Unlimited,SBD,M,
Boys,74.84,6,Vincent Mugaruka,Fort Worth Chisholm Trail,72.35,188.24,111.13,188.24,487.61,Unlimited,SBD,M,
Boys,74.84,7,Josh Johnson,Aledo,74.57,192.78,124.74,167.83,485.34,Unlimited,SBD,M,
Boys,74.84,8,Terry Starks,Saginaw,70.99,165.56,102.06,204.12,471.74,Unlimited,SBD,M,
Boys,74.84,9,Carson Bobbit,Aledo,69.58,167.83,127.01,163.29,458.13,Unlimited,SBD,M,
Boys,74.84,DQ,Michael Rodriguez,Saginaw,73.94,231.33,,,,Unlimited,SBD,M,
Boys,74.84,DQ,Gage Cantrell,Springtown,74.66,188.24,,,,Unlimited,SBD,M,
Boys,82.1,1,Tyler Ulrich,Azle,81.51,240.4,156.49,249.48,646.37,Unlimited,SBD,M,
Boys,82.1,2,Cash Moore,Azle,81.87,240.4,176.9,226.8,644.1,Unlimited,SBD,M,
Boys,82.1,3,Rylan Brenish,Granbury,80.74,242.67,149.69,249.48,641.83,Unlimited,SBD,M,
Boys,82.1,4,Nate Wyly,Fort Worth Boswell,80.92,222.26,158.76,199.58,580.6,Unlimited,SBD,M,
Boys,82.1,5,Cory Tilly,Aledo,79.97,204.12,170.1,204.12,578.33,Unlimited,SBD,M,
Boys,82.1,6,Hyatt Dunaway,Brock,80.2,204.12,140.61,185.97,530.7,Unlimited,SBD,M,
Boys,82.1,7,Ayema Sorie,Fort Worth Chisholm Trail,81.51,199.58,113.4,213.19,526.17,Unlimited,SBD,M,
Boys,82.1,8,Landon Downes,Springtown,77.79,206.38,124.74,192.78,523.9,Unlimited,SBD,M,
Boys,82.1,9,Jeampy Makuna,Saginaw,80.15,185.97,111.13,204.12,501.22,Unlimited,SBD,M,
Boys,82.1,10,Gage Douglas,Glen Rose,77.2,181.44,136.08,181.44,498.95,Unlimited,SBD,M,
Boys,82.1,11,Reed Johnson,Brock,78.02,167.83,127.01,176.9,471.74,Unlimited,SBD,M,
Boys,82.1,12,Kyler Cullum,Brock,75.75,183.7,102.06,176.9,462.66,Unlimited,SBD,M,
Boys,82.1,13,Carter Swann,Fort Worth Chisholm Trail,76.88,183.7,90.72,181.44,455.86,Unlimited,SBD,M,
Boys,89.81,1,Davin Jones,Granbury,84.28,249.48,158.76,224.53,632.76,Unlimited,SBD,M,
Boys,89.81,2,Moses Meis,Granbury,88.99,244.94,147.42,233.6,625.96,Unlimited,SBD,M,
Boys,89.81,3,Cameron James,Granbury,86.73,224.53,145.15,213.19,582.87,Unlimited,SBD,M,
Boys,89.81,4,Christian Dehoyas,Azle,87.77,231.33,115.67,233.6,580.6,Unlimited,SBD,M,
Boys,89.81,5,Caleb Holt,Brock,88.13,215.46,147.42,204.12,566.99,Unlimited,SBD,M,
Boys,89.81,6,Justin Fox,Fort Worth Boswell,89.13,204.12,124.74,208.65,537.51,Unlimited,SBD,M,
Boys,89.81,7,Isaac Flores,Fort Worth Chisholm Trail,85.05,195.04,120.2,204.12,519.36,Unlimited,SBD,M,
Boys,89.81,8,Pale Uli,Fort Worth Chisholm Trail,88.68,210.92,117.93,181.44,510.29,Unlimited,SBD,M,
Boys,89.81,9,Ben Farmer,Aledo,85.05,163.29,115.67,217.72,496.68,Unlimited,SBD,M,
Boys,89.81,10,Sebastian Mandujano,Fort Worth Chisholm Trail,89.68,147.42,136.08,170.1,453.59,Unlimited,SBD,M,
Boys,89.81,DQ,Landon Perez,White Settlement Brewer,89.31,,,,,Unlimited,SBD,M,
Boys,89.81,DQ,David Arrisola,White Settlement Brewer,87.41,151.95,,,,Unlimited,SBD,M,
Boys,89.81,DQ,Jesse Kruijswijk,Saginaw,88.95,170.1,113.4,,,Unlimited,SBD,M,
Boys,89.81,DQ,Robert Lewis,Springtown,84.19,260.82,131.54,,,Unlimited,SBD,M,
Boys,99.79,1,Case Moore,Azle,96.03,272.16,190.51,226.8,689.46,Unlimited,SBD,M,
Boys,99.79,2,Keltyn Raymond,Glen Rose,98.57,260.82,163.29,242.67,666.78,Unlimited,SBD,M,
Boys,99.79,3,Alex Arana,Aledo,94.39,242.67,167.83,226.8,637.3,Unlimited,SBD,M,
Boys,99.79,4,Malik McCoy,Saginaw,93.08,204.12,140.61,231.33,576.06,Unlimited,SBD,M,
Boys,99.79,5,Colton Plemons,White Settlement Brewer,98.11,195.04,124.74,231.33,551.11,Unlimited,SBD,M,
Boys,99.79,6,Patricio Long,Saginaw,97.75,224.53,131.54,192.78,548.85,Unlimited,SBD,M,
Boys,99.79,7,Isaiah Lugo,Fort Worth Chisholm Trail,99.65,213.19,111.13,176.9,501.22,Unlimited,SBD,M,
Boys,99.79,DQ,Hayden Nichols,Springtown,98.25,249.48,151.95,,,Unlimited,SBD,M,
Boys,99.79,DQ,D'Lathian Young,Azle,98.79,226.8,167.83,,,Unlimited,SBD,M,
Boys,99.79,DQ,Alijah Aguilar,Brock,93.21,183.7,122.47,,,Unlimited,SBD,M,
Boys,109.77,1,Enrique Sanchez,Granbury,107.95,258.55,185.97,254.01,698.53,Unlimited,SBD,M,
Boys,109.77,2,Chase Cantrell,Granbury,101.92,249.48,158.76,231.33,639.57,Unlimited,SBD,M,
Boys,109.77,3,Beckham Friesen,Brock,106.64,215.46,190.51,206.38,612.35,Unlimited,SBD,M,
Boys,109.77,4,Josh Mangus,Fort Worth Boswell,101.65,235.87,131.54,242.67,610.08,Unlimited,SBD,M,
Boys,109.77,5,Walker Hughes,Brock,105.19,238.14,151.95,219.99,610.08,Unlimited,SBD,M,
Boys,109.77,6,Diaz Rolle,Fort Worth Chisholm Trail,107.82,242.67,136.08,226.8,605.55,Unlimited,SBD,M,
Boys,109.77,7,Anthony Flowers,Aledo,106.05,231.33,147.42,213.19,591.94,Unlimited,SBD,M,
Boys,109.77,8,Sawyer Ghazal,Glen Rose,108.59,235.87,161.03,192.78,589.67,Unlimited,SBD,M,
Boys,109.77,9,John Mejia,Springtown,100.38,226.8,122.47,199.58,548.85,Unlimited,SBD,M,
Boys,109.77,10,Isaac Mendoza,Saginaw,104.33,197.31,102.06,192.78,492.15,Unlimited,SBD,M,
Boys,109.77,11,Christian Ballesteros,Glen Rose,105.19,190.51,129.27,172.37,492.15,Unlimited,SBD,M,
Boys,109.77,12,Nicolas Hartnett,Fort Worth Chisholm Trail,108.64,179.17,117.93,167.83,464.93,Unlimited,SBD,M,
Boys,109.77,DQ,Ridge Westendorf,Springtown,106.87,244.94,,,,Unlimited,SBD,M,
Boys,124.74,1,Ruben Ramirez,Fort Worth Boswell,114.12,272.16,163.29,226.8,662.24,Unlimited,SBD,M,
Boys,124.74,2,Raymond Howard,Aledo,115.39,267.62,156.49,235.87,659.98,Unlimited,SBD,M,
Boys,124.74,3,Wilmer Reyes,White Settlement Brewer,121.93,249.48,156.49,204.12,610.08,Unlimited,SBD,M,
Boys,124.74,4,Atticus Finley,Fort Worth Chisholm Trail,116.66,240.4,131.54,235.87,607.81,Unlimited,SBD,M,
Boys,124.74,5,Luke Campbell,Aledo,111.27,222.26,154.22,219.99,596.47,Unlimited,SBD,M,
Boys,124.74,6,Breyden Kearby,Springtown,123.01,231.33,138.35,222.26,591.94,Unlimited,SBD,M,
Boys,124.74,7,Alan Orocio,Granbury,110.5,224.53,142.88,199.58,566.99,Unlimited,SBD,M,
Boys,124.74,8,Waylon Winfrey,Brock,116.57,226.8,161.03,170.1,557.92,Unlimited,SBD,M,
Boys,124.74,9,Jarron Montalvo,White Settlement Brewer,123.97,206.38,113.4,215.46,535.24,Unlimited,SBD,M,
Boys,124.74,10,Elijah Lugo,Fort Worth Chisholm Trail,113.44,201.85,124.74,176.9,503.49,Unlimited,SBD,M,
Boys,124.74,11,Grayson Morphies,Brock,119.11,215.46,122.47,163.29,501.22,Unlimited,SBD,M,
Boys,139.71,1,Nathanael Cordova,Fort Worth Boswell,130.91,260.82,140.61,242.67,644.1,Unlimited,SBD,M,
Boys,139.71,2,Jose Hernandez,Granbury,134.44,233.6,147.42,208.65,589.67,Unlimited,SBD,M,
Boys,139.71,3,Charlie Sanders,White Settlement Brewer,131.59,208.65,167.83,210.92,587.4,Unlimited,SBD,M,
Boys,139.71,4,Omari Din-Mbuh,Aledo,129.09,222.26,149.69,197.31,569.26,Unlimited,SBD,M,
Boys,139.71,5,Brayden Meason,Fort Worth Boswell,137.17,226.8,122.47,174.63,523.9,Unlimited,SBD,M,
Boys,139.71,6,Trent Wade,Springtown,126.55,183.7,142.88,195.04,521.63,Unlimited,SBD,M,
Boys,139.71,7,Aaron Street,Springtown,125.1,199.58,133.81,185.97,519.36,Unlimited,SBD,M,
Boys,139.71,8,Devin Moody,White Settlement Brewer,133.13,195.04,115.67,176.9,487.61,Unlimited,SBD,M,
Boys,139.71,9,Braxtin Knight,Glen Rose,130.68,192.78,124.74,167.83,485.34,Unlimited,SBD,M,
Boys,139.71,DQ,Jacob Mangas,Saginaw,135.62,,,,,Unlimited,SBD,M,
Boys,139.71+,1,Xzaviah Milton,Saginaw,157.71,272.16,208.65,192.78,673.58,Unlimited,SBD,M,
Boys,139.71+,2,Clark Anderson,Glen Rose,145.78,208.65,117.93,199.58,526.17,Unlimited,SBD,M,
Boys,139.71+,3,Adam May,Azle,141.48,185.97,142.88,195.04,523.9,Unlimited,SBD,M,
Boys,139.71+,4,Hayden Robertson,Fort Worth Boswell,143.2,181.44,140.61,192.78,514.83,Unlimited,SBD,M,
Boys,139.71+,5,Carmelo Martinez,Brock,148.51,183.7,122.47,181.44,487.61,Unlimited,SBD,M,
