Division,WeightClassKg,Place,Name,Team,BodyweightKg,Best3SquatKg,Best3BenchKg,Best3DeadliftKg,TotalKg,Equipment,Event,Sex,BirthDate
Boys,51.71,1,Davion Wilson,Itasca,50.62,133.81,90.72,138.35,362.87,Unlimited,SBD,M,
Boys,51.71,2,Juan Rios,Big Lake Reagan County,51.17,133.81,72.57,138.35,344.73,Unlimited,SBD,M,
Boys,51.71,3,Bryson Book,Miles,50.8,124.74,65.77,127.01,317.51,Unlimited,SBD,M,
Boys,51.71,4,Alan Osorio,Coleman,51.35,113.4,68.04,136.08,317.51,Unlimited,SBD,M,
Boys,51.71,5,Luke Barr,Hico,50.8,124.74,74.84,108.86,308.44,Unlimited,SBD,M,
Boys,51.71,6,Blake Bankhead,Roscoe Highland,51.35,108.86,54.43,127.01,290.3,Unlimited,SBD,M,
Boys,51.71,7,Joaquin Vasquez,Big Lake Reagan County,49.99,111.13,61.23,104.33,276.69,Unlimited,SBD,M,
Boys,51.71,8,Cesar Ramos,Meridian,48.63,99.79,40.82,115.67,256.28,Unlimited,SBD,M,
Boys,51.71,9,Zackary Smith,Meridian,51.62,92.99,47.63,106.59,247.21,Unlimited,SBD,M,
Boys,51.71,DQ,Cristian Ontiveros,Crawford,50.35,,,,,Unlimited,SBD,M,
Boys,51.71,DQ,Will Sandifer,Bosqueville,44.63,,,,,Unlimited,SBD,M,
Boys,51.71,DQ,Travis Mclellan,Riesel,49.99,,,,,Unlimited,SBD,M,
Boys,55.79,1,Alvin Thao,Itasca,54.79,142.88,92.99,149.69,385.55,Unlimited,SBD,M,
Boys,55.79,2,Brylen Fiest,Tolar,55.52,154.22,83.91,147.42,385.55,Unlimited,SBD,M,
Boys,55.79,3,Braylon Stewart,Coleman,54.52,145.15,88.45,147.42,381.02,Unlimited,SBD,M,
Boys,55.79,4,Boo Hickok,Crawford,53.89,138.35,92.99,145.15,376.48,Unlimited,SBD,M,
Boys,55.79,5,Jeremiah Talamantes,Garden City,55.52,142.88,79.38,147.42,369.68,Unlimited,SBD,M,
Boys,55.79,6,Mikee Pelzel,Miles,52.62,138.35,74.84,136.08,349.27,Unlimited,SBD,M,
Boys,55.79,7,Christian Reyes,San Saba,53.8,131.54,74.84,113.4,319.78,Unlimited,SBD,M,
Boys,55.79,DQ,Gerardo Rios,Big Lake Reagan County,54.52,131.54,65.77,,,Unlimited,SBD,M,
Boys,55.79,DQ,Christian Campos,Hubbard,55.25,111.13,,,,Unlimited,SBD,M,
Boys,55.79,DQ,Jaxon McGavock,Hico,52.71,122.47,74.84,,,Unlimited,SBD,M,
Boys,55.79,DQ,Colton Benge,Christoval,55.16,127.01,70.31,,,Unlimited,SBD,M,
Boys,59.87,1,Tevin Meade,Miles,57.61,192.78,129.27,197.31,519.36,Unlimited,SBD,M,
Boys,59.87,2,Ethan Crouch,Miles,57.33,176.9,104.33,179.17,460.4,Unlimited,SBD,M,
Boys,59.87,3,Adam Perez,De Leon,58.06,161.03,95.25,183.7,439.98,Unlimited,SBD,M,
Boys,59.87,4,Enrique Chavarria,Moody,59.51,170.1,95.25,172.37,437.72,Unlimited,SBD,M,
Boys,59.87,5,Michael-Paul Loftice,Mart,58.88,147.42,86.18,158.76,392.36,Unlimited,SBD,M,
Boys,59.87,6,Teague Arlitt,Axtell,59.24,142.88,88.45,147.42,378.75,Unlimited,SBD,M,
Boys,59.87,7,Barrett Floyd,Roscoe Collegiate,59.69,156.49,81.65,124.74,362.87,Unlimited,SBD,M,
Boys,59.87,8,Barrett Standridge,San Saba,58.6,149.69,65.77,145.15,360.61,Unlimited,SBD,M,
Boys,59.87,9,Ethan Rodgers,Crawford,58.06,142.88,74.84,138.35,356.07,Unlimited,SBD,M,
Boys,59.87,10,Sheldon Book,Miles,58.6,129.27,88.45,133.81,351.53,Unlimited,SBD,M,
Boys,59.87,11,Brock Brown,Santa Anna,59.15,122.47,74.84,151.95,349.27,Unlimited,SBD,M,
Boys,59.87,DQ,Julian Cuellar,Roscoe Collegiate,59.69,,,,,Unlimited,SBD,M,
Boys,67.13,1,Austin Medina,Miles,66.04,204.12,129.27,185.97,519.36,Unlimited,SBD,M,
Boys,67.13,2,Jacob Ramirez,Coleman,62.96,170.1,104.33,197.31,471.74,Unlimited,SBD,M,
Boys,67.13,3,Michael Harrison,Axtell,66.86,161.03,122.47,188.24,471.74,Unlimited,SBD,M,
Boys,67.13,4,Keagan Walz,Miles,66.77,185.97,92.99,190.51,469.47,Unlimited,SBD,M,
Boys,67.13,5,Justin Hernandez,San Saba,65.77,174.63,92.99,195.04,462.66,Unlimited,SBD,M,
Boys,67.13,6,Collin Conner,Riesel,65.77,163.29,104.33,185.97,453.59,Unlimited,SBD,M,
Boys,67.13,7,Aiden Cerna,Roscoe Collegiate,65.14,172.37,97.52,172.37,442.25,Unlimited,SBD,M,
Boys,67.13,8,Jonathn Bravo,Bosqueville,67.13,170.1,106.59,158.76,435.45,Unlimited,SBD,M,
Boys,67.13,9,Jaiden Frith,Roscoe Collegiate,64.23,151.95,92.99,181.44,426.38,Unlimited,SBD,M,
Boys,67.13,10,Anthony Garcia,San Saba,66.22,165.56,90.72,163.29,419.57,Unlimited,SBD,M,
Boys,67.13,DQ,Gahel Griner,Christoval,64.5,256.28,,,,Unlimited,SBD,M,
Boys,74.84,1,Michael Fulton,Roscoe Collegiate,72.94,244.94,163.29,226.8,635.03,Unlimited,SBD,M,
Boys,74.84,2,Dakota Higgins,Rising Star,72.76,185.97,140.61,219.99,546.58,Unlimited,SBD,M,
Boys,74.84,3,Ben Brumfield,Three Way,73.84,204.12,138.35,204.12,546.58,Unlimited,SBD,M,
Boys,74.84,4,Ruben Bernal,Big Lake Reagan County,69.22,229.06,124.74,181.44,535.24,Unlimited,SBD,M,
Boys,74.84,5,Ryan Dickey,Bangs,73.3,210.92,117.93,192.78,521.63,Unlimited,SBD,M,
Boys,74.84,6,Tanner McAninch,Axtell,73.84,183.7,129.27,199.58,512.56,Unlimited,SBD,M,
Boys,74.84,7,Devean Greaves,Bangs,73.12,197.31,138.35,165.56,501.22,Unlimited,SBD,M,
Boys,74.84,8,Julius Salinas,San Saba,72.57,183.7,111.13,195.04,489.88,Unlimited,SBD,M,
Boys,74.84,9,Ayden Yanez,Westbrook,73.48,181.44,127.01,181.44,489.88,Unlimited,SBD,M,
Boys,74.84,DQ,Troy Arlitt,Axtell,70.4,,,,,Unlimited,SBD,M,
Boys,74.84,DQ,Corbin Martinez,Westbrook,71.67,,,,,Unlimited,SBD,M,
Boys,82.1,1,William Perry,Santa Anna,79.83,240.4,129.27,249.48,619.15,Unlimited,SBD,M,
Boys,82.1,2,Price Mullin,Hico,76.38,208.65,147.42,226.8,582.87,Unlimited,SBD,M,
Boys,82.1,3,Noah Castillo,Bangs,80.56,226.8,136.08,219.99,582.87,Unlimited,SBD,M,
Boys,82.1,4,Logan Trussell,Three Way,80.83,204.12,131.54,206.38,542.04,Unlimited,SBD,M,
Boys,82.1,5,Keith Daily,Moody,81.74,229.06,117.93,195.04,542.04,Unlimited,SBD,M,
Boys,82.1,6,Jason Everett,San Saba,75.84,208.65,124.74,195.04,528.44,Unlimited,SBD,M,
Boys,82.1,7,Ethan Althoff,Crawford,78.2,201.85,122.47,185.97,510.29,Unlimited,SBD,M,
Boys,82.1,8,Gio Villanueva,Coleman,76.66,172.37,127.01,192.78,492.15,Unlimited,SBD,M,
Boys,82.1,9,Aidan Brown,Roscoe Collegiate,79.38,174.63,113.4,183.7,471.74,Unlimited,SBD,M,
Boys,82.1,DQ,Aiden Phillips,Colorado City Colorado,77.75,183.7,,,,Unlimited,SBD,M,
Boys,82.1,DQ,Kaden Gutierrez,Westbrook,79.56,,,,,Unlimited,SBD,M,
Boys,89.81,1,Demarcus Acoff,Jonesboro,88.36,233.6,161.03,219.99,614.62,Unlimited,SBD,M,
Boys,89.81,2,Noah Holt,Rio Vista,87.82,222.26,142.88,226.8,591.94,Unlimited,SBD,M,
Boys,89.81,3,Jon Brumfield,Three Way,88,215.46,149.69,210.92,576.06,Unlimited,SBD,M,
Boys,89.81,4,Brayden Cook,Rising Star,84.28,195.04,156.49,217.72,569.26,Unlimited,SBD,M,
Boys,89.81,5,Adan Rocha,De Leon,82.19,226.8,133.81,195.04,555.65,Unlimited,SBD,M,
Boys,89.81,6,Jadin Jackson,Coleman,85.64,231.33,111.13,197.31,539.77,Unlimited,SBD,M,
Boys,89.81,7,Justin Saenz,Roscoe Collegiate,87.91,231.33,127.01,176.9,535.24,Unlimited,SBD,M,
Boys,89.81,8,Austin Massingill,Jonesboro,88.9,188.24,142.88,204.12,535.24,Unlimited,SBD,M,
Boys,89.81,9,John Wyatt,Meridian,89.27,204.12,102.06,215.46,521.63,Unlimited,SBD,M,
Boys,89.81,10,Connor Bostic,De Leon,85.18,199.58,108.86,208.65,517.1,Unlimited,SBD,M,
Boys,89.81,11,Andrew Lopez,Big Lake Reagan County,87.45,195.04,151.95,170.1,517.1,Unlimited,SBD,M,
Boys,89.81,DQ,Carson Carter,Bruceville-Eddy,87.09,219.99,129.27,,,Unlimited,SBD,M,
Boys,99.79,1,Zeke Munoz,Coleman,95.62,317.51,199.58,244.94,762.04,Unlimited,SBD,M,
Boys,99.79,2,Tylan Balthrop,Roscoe Highland,96.89,258.55,172.37,217.72,648.64,Unlimited,SBD,M,
Boys,99.79,3,Nate Jones,Roscoe Collegiate,98.25,272.16,142.88,195.04,610.08,Unlimited,SBD,M,
Boys,99.79,4,Jake Stanford,Crawford,95.44,226.8,131.54,217.72,576.06,Unlimited,SBD,M,
Boys,99.79,5,Brazos Boswell,De Leon,97.07,235.87,117.93,208.65,562.45,Unlimited,SBD,M,
Boys,99.79,6,Payton Brister,Jonesboro,97.52,170.1,142.88,231.33,544.31,Unlimited,SBD,M,
Boys,99.79,7,Aiden Hernandez,Coleman,93.08,213.19,131.54,185.97,530.7,Unlimited,SBD,M,
Boys,99.79,8,Colton Kelly,Miles,98.79,197.31,120.2,213.19,530.7,Unlimited,SBD,M,
Boys,99.79,9,Roberto Almazan,Garden City,97.98,204.12,111.13,213.19,528.44,Unlimited,SBD,M,
Boys,99.79,10,Ben Spaulding,Roscoe Highland,90.45,174.63,151.95,183.7,510.29,Unlimited,SBD,M,
Boys,99.79,11,Dimitrio Pantoja,Roscoe Collegiate,96.98,181.44,136.08,185.97,503.49,Unlimited,SBD,M,
Boys,99.79,12,Brandon Klanika,Axtell,90.72,181.44,117.93,192.78,492.15,Unlimited,SBD,M,
Boys,109.77,1,Abram Ross,Mart,106.87,299.37,183.7,263.08,746.16,Unlimited,SBD,M,
Boys,109.77,2,Sam Stewart,Tolar,103.42,247.21,181.44,251.74,680.39,Unlimited,SBD,M,
Boys,109.77,3,Christan Teichelman,Valley Mills,102.15,244.94,158.76,217.72,621.42,Unlimited,SBD,M,
Boys,109.77,4,Josiah Lujan,Loraine,108.86,231.33,140.61,238.14,610.08,Unlimited,SBD,M,
Boys,109.77,5,Anthony Zepeda,Rio Vista,104.51,231.33,113.4,226.8,571.53,Unlimited,SBD,M,
Boys,109.77,6,Harley Stuard,Roscoe Collegiate,106.68,238.14,129.27,204.12,571.53,Unlimited,SBD,M,
Boys,109.77,7,Riley Garcia,Bangs,107.77,226.8,127.01,195.04,548.85,Unlimited,SBD,M,
Boys,109.77,8,Liam Monpere,Colorado City Colorado,106.5,208.65,106.59,192.78,508.02,Unlimited,SBD,M,
Boys,109.77,9,Eduardo Paz,Valley Mills,103.15,197.31,124.74,183.7,505.76,Unlimited,SBD,M,
Boys,109.77,DQ,Bryan Gutierrez,Big Lake Reagan County,104.14,,,,,Unlimited,SBD,M,
Boys,109.77,DQ,Peyton Friedman,Roscoe Collegiate,107.68,276.69,176.9,,,Unlimited,SBD,M,
Boys,109.77,DQ,Aiden Wooddell,Colorado City Colorado,107.68,226.8,113.4,,,Unlimited,SBD,M,
Boys,124.74,1,Oscar Camacho,Coleman,114.4,303.91,210.92,272.16,786.98,Unlimited,SBD,M,
Boys,124.74,2,D'marius Williams,Mart,113.67,260.82,140.61,231.33,632.76,Unlimited,SBD,M,
Boys,124.74,3,Isaiah Arjon,Mart,112.13,249.48,142.88,208.65,601.01,Unlimited,SBD,M,
Boys,124.74,4,Juan Garcia,De Leon,120.93,226.8,140.61,204.12,571.53,Unlimited,SBD,M,
Boys,124.74,5,Brayden Buckley,Westbrook,122.2,204.12,151.95,206.38,562.45,Unlimited,SBD,M,
Boys,124.74,6,Mills Mehaffey,Hamilton,117.03,204.12,151.95,190.51,546.58,Unlimited,SBD,M,
Boys,124.74,7,John Paul,Bangs,112.4,195.04,122.47,213.19,530.7,Unlimited,SBD,M,
Boys,124.74,8,Jayrdan Espinoza,Colorado City Colorado,122.02,226.8,97.52,204.12,528.44,Unlimited,SBD,M,
Boys,124.74,9,Edmond Martinez,Goldthwaite,113.22,170.1,124.74,192.78,487.61,Unlimited,SBD,M,
Boys,124.74,DQ,Jack Cummings,Bosqueville,118.39,258.55,158.76,,,Unlimited,SBD,M,
Boys,124.74,DQ,Oscar Villarreal,Ranger,119.48,,,,,Unlimited,SBD,M,
Boys,124.74,DQ,Abraham Cisneros,Riesel,113.04,,,,,Unlimited,SBD,M,
Boys,139.71,1,Nik Adams,Hamilton,126.73,290.3,167.83,258.55,716.68,Unlimited,SBD,M,
Boys,139.71,2,Noah Pin,Bangs,125.55,281.23,145.15,235.87,662.24,Unlimited,SBD,M,
Boys,139.71,3,Jackson Sedberry,Mart,127.55,263.08,158.76,215.46,637.3,Unlimited,SBD,M,
Boys,139.71,4,Noah Krienke,Bosqueville,133.36,244.94,142.88,176.9,564.72,Unlimited,SBD,M,
Boys,139.71,5,Austin Manly,Bruceville-Eddy,131.18,201.85,120.2,192.78,514.83,Unlimited,SBD,M,
Boys,139.71,6,Andrew Goodney,Colorado City Colorado,131,204.12,138.35,170.1,512.56,Unlimited,SBD,M,
Boys,139.71,7,Kasen Ferguson,Bosqueville,126.73,199.58,124.74,179.17,503.49,Unlimited,SBD,M,
Boys,139.71,8,Adrian Hernandez,Loraine,125.19,192.78,104.33,201.85,498.95,Unlimited,SBD,M,
Boys,139.71,9,Issak Velasquez,Crawford,127.91,188.24,129.27,172.37,489.88,Unlimited,SBD,M,
Boys,139.71,10,Rylee Muncy,Water Valley,128.73,190.51,104.33,195.04,489.88,Unlimited,SBD,M,
Boys,139.71,DQ,Juan Lopez,San Saba,139.71,,,,,Unlimited,SBD,M,
Boys,139.71+,1,Christian Ashby,Colorado City Colorado,144.33,267.62,161.03,251.74,680.39,Unlimited,SBD,M,
Boys,139.71+,2,Brody Newton,Bangs,140.61,226.8,136.08,215.46,578.33,Unlimited,SBD,M,
Boys,139.71+,3,Ethan Lee,Christoval,148.96,217.72,142.88,210.92,571.53,Unlimited,SBD,M,
Boys,139.71+,4,Hugo Melendez,Goldthwaite,151.95,183.7,142.88,179.17,505.76,Unlimited,SBD,M,
Boys,139.71+,5,Carter Boyd,Rio Vista,139.98,190.51,136.08,142.88,469.47,Unlimited,SBD,M,
